UV-Detektor/different file formats for the same/DS0003.CSV

Format,2.0A,
Memory Length,5000,
IntpDistance,0,
Trigger Address,0,
Trigger Level,960mV,
Source,CH1,
Vertical Units,V,
Vertical Units Div,0,
Vertical Units Extend Div,13,
Label, ,
Probe Type,0,
Probe Ratio,1.000E+01,
Vertical Scale,2.000E-01,
Vertical Position,-4.000E-01,
Horizontal Units,S,
Horizontal Scale,5.000E+01,
Horizontal Position,0.000E+00,
Horizontal Mode,Roll Mode,
Display Last Dot Address,5000,
Waveform Last Dot Address,0,
SincET Mode,Real Time,
Sampling Period,1.000E-01,
Horizontal Old Scale,5.000E+01,
Horizontal Old Position,0.000E+00,
Firmware,V1.29,
Time,04-Feb-19 18:41:05,
Mode,Fast,
Waveform Data,
14,
8,
13,
7,
15,
9,
9,
14,
15,
9,
14,
9,
14,
9,
13,
8,
14,
9,
14,
9,
13,
9,
15,
9,
13,
9,
9,
14,
13,
9,
9,
14,
9,
15,
13,
9,
14,
9,
9,
14,
9,
14,
14,
9,
14,
9,
14,
9,
9,
15,
14,
9,
15,
10,
15,
10,
14,
9,
15,
10,
16,
10,
15,
10,
15,
10,
15,
9,
10,
15,
15,
8,
15,
11,
15,
11,
15,
10,
15,
10,
15,
10,
15,
10,
16,
11,
16,
11,
15,
10,
10,
15,
10,
16,
15,
11,
15,
9,
9,
16,
15,
10,
15,
9,
10,
16,
10,
15,
16,
10,
15,
10,
15,
11,
15,
11,
15,
9,
16,
10,
10,
15,
15,
11,
15,
10,
15,
9,
15,
9,
15,
10,
16,
10,
15,
10,
10,
16,
16,
11,
15,
9,
16,
11,
17,
11,
15,
10,
16,
10,
16,
11,
16,
11,
10,
16,
15,
10,
15,
11,
16,
11,
16,
10,
15,
11,
15,
10,
15,
11,
15,
11,
15,
10,
10,
16,
15,
11,
16,
9,
16,
11,
9,
16,
16,
11,
17,
11,
15,
11,
16,
10,
15,
10,
15,
10,
16,
11,
11,
16,
15,
10,
16,
11,
16,
10,
15,
11,
15,
11,
16,
11,
16,
11,
15,
11,
15,
10,
16,
11,
15,
11,
11,
16,
15,
11,
11,
16,
16,
11,
15,
10,
15,
11,
15,
11,
15,
11,
16,
11,
16,
10,
15,
11,
15,
10,
16,
11,
15,
10,
15,
11,
16,
10,
11,
16,
16,
11,
16,
11,
16,
11,
15,
11,
15,
10,
16,
11,
15,
11,
16,
11,
15,
11,
15,
11,
15,
11,
17,
11,
16,
11,
16,
11,
15,
11,
15,
11,
11,
16,
15,
12,
15,
11,
15,
11,
16,
11,
16,
11,
16,
12,
16,
11,
16,
11,
16,
11,
16,
11,
15,
11,
11,
16,
16,
11,
16,
12,
15,
11,
11,
17,
17,
11,
15,
12,
16,
10,
16,
11,
11,
17,
17,
12,
17,
12,
17,
12,
11,
17,
17,
12,
16,
12,
12,
17,
17,
12,
17,
12,
17,
13,
18,
13,
12,
17,
18,
13,
12,
17,
13,
18,
18,
13,
13,
18,
18,
13,
18,
14,
18,
14,
14,
19,
18,
14,
19,
14,
13,
19,
18,
15,
14,
20,
20,
15,
19,
14,
20,
15,
19,
14,
15,
20,
19,
15,
21,
15,
20,
15,
20,
14,
20,
16,
21,
16,
22,
16,
21,
16,
21,
16,
16,
21,
21,
16,
21,
16,
22,
16,
21,
17,
17,
22,
21,
17,
21,
17,
21,
17,
17,
22,
22,
17,
23,
17,
17,
22,
22,
18,
22,
17,
22,
18,
23,
18,
23,
19,
23,
18,
23,
18,
23,
19,
23,
19,
24,
19,
24,
17,
23,
19,
18,
24,
24,
20,
24,
19,
24,
20,
24,
20,
24,
20,
24,
20,
24,
20,
20,
25,
24,
20,
20,
25,
25,
20,
25,
21,
25,
21,
25,
20,
25,
20,
25,
20,
25,
21,
26,
21,
21,
27,
27,
21,
25,
21,
26,
21,
26,
21,
27,
22,
26,
22,
26,
21,
27,
22,
26,
22,
26,
22,
27,
22,
26,
22,
27,
23,
27,
22,
26,
23,
27,
23,
22,
27,
27,
22,
27,
23,
27,
23,
27,
23,
27,
22,
27,
22,
28,
23,
27,
23,
28,
22,
27,
22,
27,
23,
27,
22,
27,
22,
27,
23,
22,
28,
27,
23,
27,
24,
28,
23,
28,
23,
27,
23,
28,
23,
27,
23,
28,
23,
28,
23,
27,
23,
27,
23,
27,
23,
27,
24,
27,
22,
28,
23,
27,
23,
23,
28,
27,
24,
27,
23,
23,
28,
28,
24,
27,
23,
27,
23,
28,
23,
29,
23,
28,
22,
23,
28,
28,
24,
29,
24,
28,
23,
27,
24,
28,
24,
28,
23,
28,
24,
27,
24,
27,
23,
28,
24,
27,
23,
23,
28,
27,
23,
27,
21,
28,
22,
28,
23,
28,
23,
28,
24,
28,
23,
27,
22,
28,
23,
28,
24,
28,
23,
28,
23,
27,
23,
27,
23,
27,
23,
23,
28,
27,
22,
27,
23,
27,
23,
27,
23,
28,
22,
27,
23,
27,
22,
28,
23,
27,
23,
22,
27,
27,
23,
28,
23,
27,
22,
27,
22,
27,
23,
28,
22,
27,
23,
27,
22,
27,
22,
27,
22,
26,
22,
27,
23,
26,
22,
27,
23,
27,
22,
28,
23,
27,
22,
27,
21,
26,
22,
26,
21,
26,
21,
26,
22,
28,
22,
27,
22,
22,
27,
26,
22,
26,
21,
27,
21,
26,
22,
26,
22,
25,
22,
26,
22,
26,
22,
21,
25,
26,
22,
26,
22,
26,
22,
25,
20,
26,
22,
27,
22,
26,
19,
26,
22,
25,
21,
25,
21,
25,
20,
26,
21,
25,
21,
26,
22,
21,
26,
25,
21,
26,
21,
25,
20,
25,
21,
20,
26,
25,
21,
25,
21,
25,
21,
26,
21,
25,
20,
25,
21,
25,
20,
25,
21,
25,
21,
25,
21,
25,
21,
25,
21,
25,
20,
24,
20,
25,
20,
25,
19,
25,
21,
25,
20,
24,
20,
25,
21,
25,
21,
25,
20,
25,
20,
26,
20,
25,
20,
25,
20,
25,
20,
24,
20,
24,
20,
20,
25,
25,
20,
24,
20,
24,
20,
24,
20,
24,
20,
24,
20,
24,
20,
24,
20,
24,
20,
25,
20,
24,
20,
24,
20,
24,
20,
24,
20,
24,
20,
25,
20,
25,
20,
24,
20,
24,
20,
25,
20,
24,
20,
19,
24,
25,
19,
24,
20,
25,
20,
25,
20,
25,
19,
25,
20,
24,
20,
24,
20,
24,
20,
24,
20,
24,
19,
24,
19,
24,
19,
24,
20,
24,
20,
24,
20,
25,
20,
24,
20,
24,
20,
19,
25,
24,
20,
23,
20,
24,
20,
25,
19,
24,
20,
24,
20,
24,
20,
24,
19,
24,
19,
24,
19,
24,
19,
24,
19,
24,
19,
24,
19,
24,
20,
24,
19,
24,
19,
24,
18,
24,
19,
24,
20,
24,
20,
24,
20,
19,
24,
23,
20,
24,
19,
24,
19,
24,
19,
25,
19,
24,
19,
24,
19,
24,
19,
24,
19,
25,
20,
25,
20,
24,
19,
24,
20,
24,
20,
24,
19,
24,
20,
24,
19,
20,
24,
24,
19,
24,
19,
24,
19,
19,
24,
24,
20,
23,
20,
23,
19,
23,
19,
24,
19,
24,
19,
24,
20,
24,
19,
24,
20,
24,
20,
19,
24,
24,
19,
23,
19,
25,
20,
24,
19,
24,
19,
19,
24,
24,
20,
24,
19,
24,
19,
24,
19,
24,
19,
19,
25,
24,
19,
19,
24,
24,
20,
19,
24,
23,
19,
24,
20,
25,
19,
19,
25,
25,
20,
24,
20,
24,
19,
24,
19,
25,
20,
24,
20,
24,
20,
25,
20,
24,
20,
24,
20,
25,
20,
24,
20,
24,
19,
24,
19,
25,
19,
19,
25,
24,
20,
24,
20,
24,
20,
24,
20,
24,
20,
24,
19,
19,
24,
24,
19,
24,
19,
23,
19,
24,
20,
24,
19,
20,
25,
24,
19,
24,
20,
18,
24,
24,
19,
24,
20,
25,
20,
24,
20,
24,
20,
24,
19,
24,
19,
24,
20,
19,
24,
24,
20,
24,
20,
24,
20,
25,
20,
24,
18,
24,
19,
24,
18,
25,
20,
24,
20,
24,
20,
25,
19,
25,
20,
24,
19,
25,
20,
24,
20,
25,
20,
20,
24,
24,
19,
25,
20,
19,
24,
24,
20,
19,
25,
24,
20,
24,
20,
26,
20,
25,
20,
24,
20,
24,
20,
24,
19,
24,
20,
24,
20,
24,
20,
24,
20,
24,
19,
24,
19,
25,
20,
25,
20,
25,
20,
24,
18,
24,
19,
25,
19,
24,
20,
24,
20,
24,
20,
25,
20,
25,
20,
24,
20,
24,
20,
26,
20,
24,
20,
25,
20,
25,
20,
20,
26,
20,
25,
24,
21,
25,
20,
25,
19,
24,
20,
24,
18,
25,
20,
25,
20,
25,
20,
24,
20,
24,
20,
24,
20,
24,
20,
20,
25,
25,
20,
25,
20,
20,
25,
24,
20,
25,
20,
25,
20,
24,
20,
24,
19,
25,
19,
24,
20,
20,
25,
20,
25,
20,
25,
25,
20,
24,
20,
20,
25,
25,
21,
24,
20,
24,
20,
24,
20,
25,
19,
19,
25,
24,
20,
26,
20,
24,
20,
25,
20,
25,
20,
25,
20,
25,
20,
24,
20,
20,
25,
19,
25,
24,
20,
25,
20,
25,
20,
20,
25,
24,
21,
25,
20,
20,
25,
25,
21,
25,
20,
24,
19,
25,
20,
26,
21,
24,
20,
25,
20,
20,
25,
25,
21,
25,
21,
25,
20,
25,
20,
20,
25,
25,
21,
25,
20,
25,
21,
25,
21,
24,
20,
25,
20,
25,
20,
24,
21,
25,
20,
24,
21,
25,
20,
25,
21,
25,
21,
25,
20,
25,
19,
25,
20,
25,
21,
25,
21,
25,
20,
26,
20,
24,
20,
24,
20,
24,
20,
25,
21,
25,
21,
26,
20,
25,
20,
25,
21,
25,
21,
25,
21,
25,
19,
25,
21,
25,
21,
25,
21,
25,
21,
24,
20,
25,
20,
25,
21,
26,
21,
20,
25,
25,
21,
25,
20,
25,
21,
25,
21,
21,
26,
26,
21,
20,
26,
25,
21,
25,
21,
25,
20,
25,
21,
26,
21,
20,
26,
25,
21,
20,
25,
26,
21,
25,
20,
25,
20,
25,
21,
25,
21,
25,
21,
25,
21,
25,
21,
25,
21,
25,
22,
25,
22,
20,
26,
25,
21,
25,
21,
25,
21,
22,
26,
20,
25,
26,
21,
26,
22,
26,
21,
26,
21,
25,
22,
26,
19,
26,
21,
25,
22,
26,
20,
21,
26,
25,
22,
25,
21,
27,
21,
27,
22,
26,
22,
26,
21,
27,
21,
25,
21,
26,
21,
26,
21,
21,
27,
25,
22,
25,
22,
25,
21,
25,
21,
26,
21,
27,
20,
25,
21,
21,
26,
21,
27,
26,
22,
26,
22,
26,
22,
26,
21,
21,
26,
26,
22,
25,
22,
26,
20,
26,
20,
26,
22,
26,
21,
26,
19,
26,
21,
21,
26,
27,
22,
26,
21,
26,
22,
21,
26,
26,
22,
22,
27,
26,
21,
27,
22,
26,
22,
26,
22,
26,
22,
26,
21,
27,
20,
26,
21,
26,
22,
26,
22,
27,
22,
26,
22,
26,
20,
27,
22,
21,
27,
26,
22,
26,
22,
22,
26,
26,
22,
26,
22,
26,
22,
26,
22,
26,
22,
27,
22,
26,
22,
27,
22,
21,
27,
22,
27,
27,
22,
27,
21,
27,
22,
27,
22,
26,
22,
26,
20,
26,
20,
21,
27,
27,
22,
26,
22,
27,
22,
28,
22,
26,
22,
27,
22,
27,
22,
27,
22,
26,
22,
26,
22,
27,
22,
26,
22,
26,
22,
26,
21,
26,
22,
22,
27,
26,
22,
27,
22,
27,
22,
26,
22,
27,
22,
26,
22,
22,
27,
27,
22,
26,
22,
26,
22,
27,
22,
27,
22,
27,
22,
26,
22,
27,
22,
26,
22,
26,
22,
26,
23,
22,
27,
27,
22,
27,
23,
21,
27,
28,
23,
28,
22,
26,
22,
27,
23,
26,
23,
27,
22,
27,
23,
27,
23,
27,
22,
22,
27,
27,
22,
26,
23,
28,
23,
27,
23,
27,
23,
27,
23,
27,
23,
27,
23,
27,
22,
27,
22,
27,
23,
27,
22,
22,
27,
27,
22,
27,
23,
27,
23,
27,
22,
27,
23,
27,
21,
27,
23,
27,
23,
22,
27,
27,
23,
28,
22,
27,
22,
22,
27,
22,
28,
27,
23,
27,
23,
27,
23,
28,
23,
27,
23,
23,
28,
23,
28,
28,
23,
28,
22,
28,
24,
28,
23,
27,
23,
28,
24,
28,
24,
29,
24,
28,
23,
28,
23,
28,
24,
28,
24,
28,
23,
28,
23,
23,
29,
28,
23,
23,
28,
28,
24,
29,
24,
28,
23,
28,
23,
28,
23,
23,
28,
24,
29,
28,
24,
28,
24,
28,
24,
28,
23,
30,
24,
24,
29,
28,
24,
29,
24,
23,
29,
30,
24,
29,
24,
29,
24,
28,
24,
28,
24,
28,
24,
28,
24,
28,
24,
28,
24,
29,
24,
29,
24,
29,
25,
28,
24,
29,
24,
29,
24,
28,
24,
29,
24,
28,
23,
28,
24,
29,
24,
29,
24,
29,
24,
29,
24,
29,
24,
29,
24,
29,
24,
29,
24,
23,
29,
28,
24,
28,
24,
29,
25,
29,
24,
28,
24,
24,
29,
24,
29,
24,
29,
28,
24,
29,
23,
24,
29,
24,
29,
29,
24,
28,
24,
29,
24,
29,
24,
24,
29,
28,
24,
29,
25,
28,
23,
30,
24,
29,
24,
29,
25,
29,
24,
24,
29,
29,
24,
29,
24,
30,
24,
29,
25,
29,
24,
24,
29,
29,
24,
24,
29,
29,
25,
29,
25,
29,
24,
30,
24,
24,
29,
29,
25,
29,
25,
29,
24,
29,
25,
29,
25,
29,
25,
29,
25,
29,
25,
29,
25,
29,
24,
29,
24,
29,
25,
25,
30,
29,
25,
31,
25,
29,
24,
30,
25,
29,
25,
30,
24,
30,
25,
29,
25,
30,
25,
29,
25,
29,
25,
29,
25,
29,
25,
24,
29,
25,
31,
31,
25,
29,
25,
30,
24,
29,
25,
30,
25,
30,
25,
29,
25,
24,
29,
30,
25,
29,
25,
29,
25,
29,
24,
29,
24,
30,
25,
25,
30,
30,
25,
29,
25,
29,
24,
29,
25,
29,
25,
29,
25,
29,
23,
29,
25,
29,
25,
29,
25,
29,
25,
29,
25,
30,
25,
30,
24,
29,
25,
29,
25,
25,
30,
29,
25,
29,
25,
30,
25,
29,
25,
31,
25,
30,
25,
30,
25,
25,
30,
29,
24,
30,
25,
25,
30,
30,
25,
30,
26,
30,
25,
31,
24,
25,
31,
30,
25,
25,
30,
30,
26,
29,
25,
25,
30,
30,
26,
31,
26,
25,
31,
31,
26,
31,
26,
30,
26,
30,
26,
30,
25,
31,
26,
30,
26,
25,
31,
30,
26,
30,
25,
31,
26,
31,
25,
31,
26,
26,
31,
30,
25,
30,
26,
30,
26,
31,
26,
30,
26,
31,
26,
30,
26,
31,
26,
31,
26,
30,
26,
26,
31,
30,
26,
30,
26,
30,
26,
30,
26,
31,
26,
32,
26,
31,
25,
31,
26,
30,
26,
30,
26,
30,
26,
30,
26,
31,
26,
31,
26,
26,
30,
31,
26,
26,
31,
32,
26,
26,
31,
31,
26,
31,
26,
26,
31,
31,
27,
30,
26,
32,
26,
31,
26,
26,
31,
31,
26,
31,
26,
31,
26,
31,
26,
31,
26,
31,
26,
31,
27,
31,
26,
26,
31,
32,
27,
26,
31,
31,
26,
30,
26,
31,
27,
31,
27,
31,
26,
26,
31,
31,
25,
26,
31,
31,
27,
31,
27,
32,
26,
31,
26,
31,
27,
31,
26,
31,
26,
31,
27,
31,
26,
31,
27,
31,
26,
26,
32,
31,
27,
31,
27,
32,
27,
31,
26,
31,
27,
31,
27,
30,
27,
31,
27,
31,
27,
31,
27,
32,
27,
31,
27,
27,
32,
32,
27,
32,
27,
31,
27,
26,
32,
31,
27,
31,
27,
32,
27,
27,
32,
31,
27,
32,
27,
32,
27,
32,
27,
31,
27,
26,
32,
31,
27,
32,
26,
31,
27,
31,
27,
31,
27,
33,
27,
32,
27,
32,
27,
27,
33,
32,
27,
27,
32,
32,
27,
27,
32,
32,
27,
32,
27,
32,
28,
32,
28,
31,
27,
32,
27,
32,
27,
32,
27,
32,
27,
27,
32,
34,
28,
32,
28,
31,
27,
32,
27,
33,
28,
27,
33,
32,
27,
32,
28,
32,
27,
33,
28,
33,
27,
31,
28,
32,
27,
32,
27,
27,
33,
31,
27,
32,
28,
32,
28,
32,
28,
32,
27,
27,
32,
27,
33,
32,
27,
32,
28,
33,
28,
34,
28,
32,
28,
32,
28,
27,
32,
32,
27,
33,
28,
32,
27,
33,
28,
32,
27,
33,
28,
33,
28,
33,
28,
33,
28,
32,
28,
28,
33,
32,
28,
32,
28,
32,
28,
32,
28,
32,
28,
32,
28,
32,
28,
32,
28,
32,
28,
34,
28,
33,
28,
32,
28,
33,
28,
33,
28,
32,
28,
32,
28,
32,
28,
33,
28,
33,
28,
33,
28,
33,
28,
32,
28,
32,
29,
32,
29,
33,
28,
32,
28,
32,
27,
32,
28,
32,
28,
33,
28,
33,
29,
32,
28,
33,
28,
33,
28,
32,
28,
33,
29,
32,
28,
32,
29,
33,
29,
33,
28,
33,
28,
33,
29,
34,
29,
28,
34,
34,
29,
33,
28,
33,
29,
33,
28,
32,
29,
33,
29,
34,
29,
33,
29,
33,
29,
33,
29,
34,
29,
33,
29,
34,
28,
34,
29,
34,
29,
28,
34,
33,
28,
34,
29,
33,
29,
32,
29,
33,
29,
34,
29,
33,
29,
29,
34,
34,
28,
33,
29,
33,
29,
34,
29,
33,
29,
29,
33,
33,
29,
33,
29,
33,
29,
28,
34,
28,
34,
33,
28,
29,
34,
34,
29,
33,
29,
29,
34,
34,
29,
34,
29,
34,
29,
34,
29,
34,
29,
29,
34,
34,
29,
34,
29,
34,
29,
33,
29,
28,
34,
35,
30,
34,
29,
34,
29,
34,
29,
34,
30,
34,
30,
33,
30,
34,
30,
29,
34,
34,
30,
33,
29,
34,
30,
34,
30,
34,
30,
29,
34,
29,
34,
34,
30,
34,
29,
34,
30,
34,
30,
34,
29,
33,
29,
29,
34,
34,
30,
34,
29,
34,
30,
34,
30,
34,
30,
29,
34,
34,
30,
34,
29,
34,
30,
34,
30,
34,
29,
34,
30,
34,
30,
34,
30,
34,
30,
34,
30,
35,
30,
35,
30,
34,
29,
34,
30,
35,
30,
34,
30,
34,
29,
34,
30,
34,
30,
35,
30,
35,
30,
35,
30,
35,
30,
36,
30,
34,
30,
36,
30,
36,
30,
35,
30,
35,
30,
30,
35,
34,
30,
34,
30,
34,
30,
35,
30,
34,
30,
35,
31,
35,
30,
30,
35,
30,
35,
34,
31,
30,
36,
34,
30,
35,
31,
35,
31,
35,
31,
34,
30,
35,
31,
30,
35,
35,
31,
35,
31,
34,
31,
35,
31,
35,
30,
30,
35,
35,
31,
35,
31,
36,
31,
35,
31,
35,
31,
35,
31,
35,
31,
35,
31,
35,
31,
35,
31,
35,
31,
35,
31,
35,
31,
35,
30,
36,
31,
36,
31,
35,
31,
36,
31,
36,
31,
35,
31,
35,
31,
36,
31,
35,
31,
35,
30,
35,
31,
35,
30,
35,
30,
30,
35,
31,
35,
36,
31,
31,
37,
36,
31,
35,
32,
35,
32,
36,
31,
35,
31,
36,
31,
35,
31,
31,
36,
37,
31,
35,
32,
36,
31,
36,
31,
35,
31,
36,
32,
31,
37,
36,
31,
36,
32,
36,
31,
35,
32,
37,
32,
36,
31,
36,
31,
36,
32,
32,
36,
36,
31,
36,
32,
36,
32,
37,
32,
36,
32,
37,
32,
37,
31,
37,
31,
36,
32,
37,
32,
36,
32,
36,
31,
36,
31,
36,
32,
32,
37,
37,
32,
37,
31,
36,
31,
37,
32,
37,
32,
36,
32,
37,
32,
37,
32,
36,
32,
36,
32,
32,
37,
37,
33,
37,
32,
36,
32,
36,
32,
37,
32,
31,
37,
32,
37,
37,
32,
36,
33,
32,
37,
37,
33,
38,
32,
37,
32,
36,
32,
37,
32,
37,
33,
36,
32,
36,
32,
37,
32,
38,
32,
32,
37,
36,
32,
36,
32,
36,
32,
37,
32,
37,
32,
37,
33,
37,
32,
37,
33,
37,
32,
36,
33,
36,
33,
32,
37,
37,
33,
32,
38,
37,
33,
38,
33,
37,
32,
37,
33,
32,
37,
37,
32,
37,
32,
37,
33,
37,
33,
37,
32,
32,
37,
37,
33,
38,
33,
39,
33,
37,
33,
38,
32,
37,
33,
37,
33,
38,
33,
37,
33,
38,
31,
37,
32,
37,
33,
38,
33,
37,
33,
38,
33,
38,
33,
32,
37,
37,
33,
33,
38,
38,
33,
37,
33,
38,
33,
38,
33,
37,
33,
38,
34,
38,
34,
33,
38,
38,
33,
33,
38,
38,
33,
38,
34,
37,
33,
37,
33,
38,
33,
33,
38,
38,
34,
37,
33,
37,
33,
38,
33,
38,
34,
38,
33,
39,
33,
39,
34,
37,
34,
37,
34,
39,
34,
38,
33,
38,
34,
38,
34,
33,
38,
39,
34,
38,
34,
39,
34,
38,
33,
38,
34,
39,
33,
38,
34,
38,
34,
38,
34,
38,
34,
38,
34,
40,
34,
38,
34,
38,
33,
38,
34,
38,
33,
38,
34,
38,
34,
39,
34,
39,
34,
39,
34,
38,
34,
39,
34,
38,
34,
39,
34,
39,
34,
38,
34,
38,
34,
38,
34,
38,
33,
39,
34,
38,
34,
39,
34,
38,
34,
39,
34,
39,
34,
38,
34,
34,
39,
39,
34,
38,
34,
38,
34,
38,
34,
39,
34,
38,
34,
38,
35,
34,
39,
34,
40,
38,
34,
39,
35,
39,
35,
39,
35,
39,
35,
38,
34,
40,
34,
39,
35,
40,
35,
39,
35,
39,
34,
39,
35,
33,
40,
39,
35,
39,
35,
39,
35,
39,
34,
40,
35,
39,
35,
34,
39,
39,
35,
34,
39,
39,
35,
40,
35,
40,
35,
40,
35,
40,
35,
39,
34,
39,
35,
39,
35,
39,
35,
40,
35,
39,
35,
34,
40,
39,
35,
39,
35,
40,
35,
39,
35,
35,
40,
40,
34,
34,
40,
39,
35,
39,
35,
40,
35,
40,
35,
40,
35,
40,
35,
34,
40,
39,
35,
39,
35,
39,
35,
35,
40,
35,
40,
40,
35,
42,
35,
34,
40,
35,
40,
40,
35,
39,
35,
40,
35,
35,
40,
40,
35,
39,
35,
39,
36,
35,
40,
41,
36,
40,
35,
35,
41,
41,
36,
40,
35,
39,
35,
39,
35,
40,
35,
40,
36,
40,
36,
41,
36,
40,
36,
41,
36,
40,
36,
40,
35,
35,
40,
40,
35,
41,
36,
40,
35,
41,
36,
40,
36,
41,
36,
36,
41,
41,
36,
40,
36,
40,
36,
36,
41,
40,
36,
35,
41,
36,
41,
40,
36,
41,
36,
40,
36,
40,
37,
41,
36,
41,
36,
41,
36,
41,
36,
41,
36,
36,
41,
41,
36,
41,
36,
41,
36,
41,
36,
41,
36,
41,
36,
40,
37,
36,
40,
41,
36,
41,
37,
41,
37,
41,
36,
41,
36,
41,
37,
41,
37,
41,
36,
36,
42,
41,
37,
41,
36,
41,
37,
40,
37,
41,
36,
36,
42,
42,
37,
41,
36,
41,
37,
41,
36,
41,
37,
42,
37,
42,
37,
41,
37,
42,
37,
41,
37,
42,
36,
42,
37,
41,
37,
41,
37,
42,
37,
42,
37,
41,
37,
41,
37,
41,
37,
41,
37,
42,
37,
42,
37,
41,
37,
42,
37,
41,
37,
41,
37,
43,
37,
42,
37,
41,
37,
41,
37,
36,
42,
42,
37,
41,
36,
42,
37,
42,
37,
41,
37,
42,
38,
42,
37,
41,
37,
36,
42,
42,
38,
42,
37,
42,
38,
41,
37,
43,
37,
42,
37,
43,
37,
37,
42,
42,
38,
37,
42,
37,
43,
42,
38,
42,
38,
43,
37,
42,
38,
37,
42,
42,
38,
42,
37,
42,
37,
43,
38,
42,
38,
43,
37,
42,
38,
43,
38,
43,
38,
43,
37,
42,
38,
43,
38,
42,
38,
42,
38,
42,
38,
42,
38,
42,
38,
42,
38,
42,
38,
37,
43,
43,
38,
42,
38,
43,
37,
38,
43,
42,
38,
42,
38,
42,
38,
43,
38,
42,
38,
42,
38,
43,
38,
42,
39,
42,
38,
42,
38,
44,
38,
43,
38,
42,
38,
43,
39,
43,
38,
42,
39,
43,
39,
43,
39,
43,
39,
43,
38,
42,
38,
43,
38,
43,
38,
43,
38,
43,
39,
43,
39,
43,
39,
43,
39,
42,
38,
43,
39,
43,
39,
43,
39,
43,
39,
43,
39,
44,
39,
43,
39,
43,
39,
43,
39,
39,
44,
43,
39,
43,
39,
44,
39,
43,
39,
43,
39,
43,
39,
43,
39,
38,
44,
44,
39,
44,
39,
43,
39,
43,
39,
43,
38,
43,
39,
43,
39,
44,
40,
44,
39,
39,
44,
39,
44,
44,
39,
39,
44,
44,
38,
44,
40,
43,
39,
44,
39,
44,
39,
43,
39,
44,
39,
44,
40,
45,
40,
44,
40,
44,
39,
44,
40,
44,
40,
44,
39,
43,
39,
39,
44,
43,
39,
39,
44,
44,
40,
44,
39,
44,
40,
44,
40,
44,
40,
45,
40,
44,
40,
45,
39,
45,
40,
44,
40,
45,
40,
44,
40,
44,
39,
44,
39,
44,
40,
44,
40,
44,
40,
44,
40,
45,
40,
44,
39,
44,
40,
44,
40,
44,
39,
44,
40,
44,
41,
44,
40,
44,
40,
44,
40,
44,
40,
44,
40,
45,
40,
44,
40,
44,
40,
44,
40,
44,
40,
45,
40,
44,
40,
45,
40,
40,
45,
45,
40,
45,
40,
45,
41,
45,
40,
45,
41,
44,
41,
44,
41,
45,
41,
46,
41,
44,
41,
40,
45,
45,
41,
45,
40,
45,
41,
46,
41,
45,
41,
45,
41,
45,
41,
40,
45,
40,
45,
45,
40,
45,
41,
45,
41,
45,
41,
45,
41,
45,
41,
45,
40,
45,
41,
45,
41,
45,
41,
45,
41,
45,
41,
45,
41,
45,
41,
45,
41,
45,
40,
45,
41,
45,
41,
45,
41,
46,
41,
41,
46,
45,
41,
45,
41,
45,
41,
46,
41,
46,
42,
46,
41,
45,
41,
46,
41,
46,
42,
45,
41,
45,
41,
41,
46,
46,
42,
41,
46,
45,
41,
41,
47,
41,
46,
46,
41,
41,
46,
46,
41,
46,
42,
46,
42,
46,
42,
46,
42,
46,
42,
46,
42,
46,
42,
47,
41,
46,
42,
45,
41,
47,
42,
46,
42,
46,
41,
46,
42,
46,
42,
46,
42,
46,
42,
46,
42,
46,
41,
47,
42,
47,
42,
46,
42,
46,
42,
46,
42,
46,
42,
46,
42,
46,
42,
46,
42,
46,
42,
46,
42,
46,
42,
47,
42,
46,
42,
47,
42,
46,
42,
47,
42,
46,
42,
46,
42,
46,
42,
47,
42,
46,
42,
42,
47,
47,
42,
47,
42,
46,
42,
46,
43,
47,
43,
48,
42,
47,
42,
47,
42,
47,
43,
47,
43,
46,
43,
47,
43,
47,
43,
47,
43,
47,
42,
46,
43,
42,
47,
47,
43,
47,
43,
47,
42,
47,
42,
46,
43,
47,
42,
48,
43,
47,
43,
42,
47,
47,
43,
48,
43,
47,
43,
48,
43,
47,
43,
48,
43,
47,
43,
47,
43,
47,
43,
47,
43,
47,
42,
42,
47,
43,
48,
47,
43,
48,
43,
47,
44,
48,
43,
48,
43,
48,
43,
47,
43,
43,
48,
48,
43,
47,
43,
47,
42,
48,
43,
48,
44,
47,
43,
48,
43,
48,
44,
47,
43,
47,
43,
48,
43,
48,
44,
48,
44,
48,
44,
47,
44,
48,
44,
48,
44,
48,
44,
48,
44,
47,
44,
48,
44,
49,
43,
48,
44,
49,
44,
48,
44,
48,
44,
47,
44,
48,
44,
48,
44,
48,
44,
43,
48,
48,
44,
48,
44,
48,
44,
48,
44,
48,
44,
48,
44,
49,
44,
48,
44,
48,
44,
48,
43,
49,
44,
49,
44,
48,
44,
48,
44,
48,
44,
48,
44,
48,
44,
48,
43,
49,
44,
48,
44,
48,
44,
48,
44,
48,
44,
48,
44,
48,
44,
48,
44,
49,
44,
48,
44,
44,
49,
48,
44,
44,
49,
48,
44,
48,
44,
49,
44,
48,
44,
48,
45,
48,
44,
49,
44,
48,
44,
44,
49,
49,
45,
49,
45,
48,
45,
49,
44,
48,
44,
49,
45,
49,
44,
49,
45,
49,
45,
49,
44,
48,
44,
44,
49,
49,
45,
49,
44,
49,
44,
49,
45,
50,
44,
49,
45,
48,
45,
49,
45,
49,
44,
50,
45,
49,
45,
48,
44,
49,
44,
44,
49,
49,
45,
49,
45,
49,
45,
49,
45,
45,
50,
45,
51,
49,
45,
49,
45,
50,
46,
45,
50,
50,
45,
50,
46,
50,
46,
46,
51,
49,
46,
50,
46,
50,
45,
50,
46,
50,
46,
51,
46,
50,
46,
50,
46,
50,
46,
50,
46,
50,
46,
51,
46,
50,
46,
50,
46,
50,
46,
50,
46,
50,
46,
50,
45,
50,
46,
50,
46,
51,
46,
50,
46,
50,
46,
50,
46,
50,
46,
50,
46,
50,
46,
50,
46,
51,
46,
51,
47,
51,
46,
50,
47,
50,
47,
46,
51,
51,
46,
50,
46,
50,
47,
50,
46,
51,
47,
51,
47,
51,
47,
51,
47,
50,
47,
51,
47,
51,
47,
51,
47,
51,
47,
51,
47,
46,
51,
52,
47,
51,
47,
46,
51,
51,
47,
51,
47,
52,
47,
51,
47,
52,
47,
52,
47,
52,
48,
51,
46,
51,
47,
52,
48,
52,
47,
47,
52,
52,
47,
47,
52,
47,
52,
52,
47,
51,
47,
52,
48,
51,
47,
51,
47,
51,
48,
51,
48,
52,
48,
52,
48,
52,
47,
47,
52,
52,
48,
47,
52,
52,
48,
52,
48,
51,
47,
51,
48,
52,
47,
52,
48,
52,
47,
53,
48,
52,
48,
52,
48,
52,
48,
53,
48,
53,
48,
52,
48,
53,
48,
52,
48,
53,
48,
52,
48,
53,
48,
52,
48,
52,
48,
52,
48,
52,
48,
52,
48,
48,
52,
53,
48,
52,
48,
52,
48,
52,
49,
52,
48,
53,
48,
53,
49,
52,
49,
52,
48,
52,
48,
52,
48,
52,
49,
48,
53,
48,
52,
52,
48,
52,
49,
52,
49,
53,
49,
53,
48,
53,
49,
48,
53,
53,
49,
53,
48,
53,
49,
53,
49,
53,
49,
52,
49,
53,
