UV-Detektor/different file formats for the same/DS0001.CSV

Format,2.0A,
Memory Length,5000,
Trigger Level,960mV,
Source,CH1,
Label, ,
Probe Ratio,1.000E+01,
Vertical Units,V,
Vertical Scale,2.000E-01,
Vertical Position,-4.000E-01,
Horizontal Units,S,
Horizontal Scale,5.000E+00,
Horizontal Position,0.000E+00,
Horizontal Mode,Roll Mode,
Sampling Period,1.000E-02,
Firmware,V1.29,
Time,04-Feb-19 18:29:11,
Mode,Detail,
Waveform Data,
-2.500000e+01,4.00e-02,
-2.499000e+01,0.00e+00,
-2.498000e+01,3.20e-02,
-2.497000e+01,-8.00e-03,
-2.496000e+01,3.20e-02,
-2.495000e+01,0.00e+00,
-2.494000e+01,3.20e-02,
-2.493000e+01,0.00e+00,
-2.492000e+01,4.00e-02,
-2.491000e+01,0.00e+00,
-2.490000e+01,4.00e-02,
-2.489000e+01,0.00e+00,
-2.488000e+01,4.00e-02,
-2.487000e+01,0.00e+00,
-2.486000e+01,3.20e-02,
-2.485000e+01,0.00e+00,
-2.484000e+01,3.20e-02,
-2.483000e+01,0.00e+00,
-2.482000e+01,4.00e-02,
-2.481000e+01,0.00e+00,
-2.480000e+01,3.20e-02,
-2.479000e+01,0.00e+00,
-2.478000e+01,-8.00e-03,
-2.477000e+01,4.00e-02,
-2.476000e+01,3.20e-02,
-2.475000e+01,0.00e+00,
-2.474000e+01,3.20e-02,
-2.473000e+01,-8.00e-03,
-2.472000e+01,4.80e-02,
-2.471000e+01,0.00e+00,
-2.470000e+01,4.00e-02,
-2.469000e+01,0.00e+00,
-2.468000e+01,4.00e-02,
-2.467000e+01,0.00e+00,
-2.466000e+01,3.20e-02,
-2.465000e+01,0.00e+00,
-2.464000e+01,3.20e-02,
-2.463000e+01,0.00e+00,
-2.462000e+01,3.20e-02,
-2.461000e+01,0.00e+00,
-2.460000e+01,3.20e-02,
-2.459000e+01,-8.00e-03,
-2.458000e+01,0.00e+00,
-2.457000e+01,4.00e-02,
-2.456000e+01,3.20e-02,
-2.455000e+01,0.00e+00,
-2.454000e+01,4.80e-02,
-2.453000e+01,0.00e+00,
-2.452000e+01,3.20e-02,
-2.451000e+01,0.00e+00,
-2.450000e+01,4.00e-02,
-2.449000e+01,0.00e+00,
-2.448000e+01,3.20e-02,
-2.447000e+01,0.00e+00,
-2.446000e+01,-8.00e-03,
-2.445000e+01,4.00e-02,
-2.444000e+01,3.20e-02,
-2.443000e+01,0.00e+00,
-2.442000e+01,3.20e-02,
-2.441000e+01,-8.00e-03,
-2.440000e+01,4.00e-02,
-2.439000e+01,0.00e+00,
-2.438000e+01,3.20e-02,
-2.437000e+01,0.00e+00,
-2.436000e+01,3.20e-02,
-2.435000e+01,0.00e+00,
-2.434000e+01,4.80e-02,
-2.433000e+01,0.00e+00,
-2.432000e+01,4.00e-02,
-2.431000e+01,0.00e+00,
-2.430000e+01,3.20e-02,
-2.429000e+01,-8.00e-03,
-2.428000e+01,4.00e-02,
-2.427000e+01,0.00e+00,
-2.426000e+01,4.00e-02,
-2.425000e+01,0.00e+00,
-2.424000e+01,3.20e-02,
-2.423000e+01,0.00e+00,
-2.422000e+01,3.20e-02,
-2.421000e+01,0.00e+00,
-2.420000e+01,3.20e-02,
-2.419000e+01,0.00e+00,
-2.418000e+01,3.20e-02,
-2.417000e+01,0.00e+00,
-2.416000e+01,4.00e-02,
-2.415000e+01,0.00e+00,
-2.414000e+01,4.00e-02,
-2.413000e+01,-8.00e-03,
-2.412000e+01,3.20e-02,
-2.411000e+01,-8.00e-03,
-2.410000e+01,3.20e-02,
-2.409000e+01,-8.00e-03,
-2.408000e+01,3.20e-02,
-2.407000e+01,0.00e+00,
-2.406000e+01,3.20e-02,
-2.405000e+01,0.00e+00,
-2.404000e+01,4.00e-02,
-2.403000e+01,0.00e+00,
-2.402000e+01,4.00e-02,
-2.401000e+01,0.00e+00,
-2.400000e+01,4.00e-02,
-2.399000e+01,0.00e+00,
-2.398000e+01,4.00e-02,
-2.397000e+01,0.00e+00,
-2.396000e+01,3.20e-02,
-2.395000e+01,0.00e+00,
-2.394000e+01,4.00e-02,
-2.393000e+01,0.00e+00,
-2.392000e+01,3.20e-02,
-2.391000e+01,-8.00e-03,
-2.390000e+01,3.20e-02,
-2.389000e+01,0.00e+00,
-2.388000e+01,0.00e+00,
-2.387000e+01,4.00e-02,
-2.386000e+01,3.20e-02,
-2.385000e+01,0.00e+00,
-2.384000e+01,4.00e-02,
-2.383000e+01,0.00e+00,
-2.382000e+01,3.20e-02,
-2.381000e+01,0.00e+00,
-2.380000e+01,3.20e-02,
-2.379000e+01,0.00e+00,
-2.378000e+01,4.00e-02,
-2.377000e+01,0.00e+00,
-2.376000e+01,4.00e-02,
-2.375000e+01,0.00e+00,
-2.374000e+01,0.00e+00,
-2.373000e+01,4.00e-02,
-2.372000e+01,4.00e-02,
-2.371000e+01,0.00e+00,
-2.370000e+01,-8.00e-03,
-2.369000e+01,4.00e-02,
-2.368000e+01,3.20e-02,
-2.367000e+01,0.00e+00,
-2.366000e+01,3.20e-02,
-2.365000e+01,-8.00e-03,
-2.364000e+01,3.20e-02,
-2.363000e+01,0.00e+00,
-2.362000e+01,4.00e-02,
-2.361000e+01,0.00e+00,
-2.360000e+01,4.00e-02,
-2.359000e+01,0.00e+00,
-2.358000e+01,3.20e-02,
-2.357000e+01,0.00e+00,
-2.356000e+01,0.00e+00,
-2.355000e+01,4.00e-02,
-2.354000e+01,3.20e-02,
-2.353000e+01,0.00e+00,
-2.352000e+01,0.00e+00,
-2.351000e+01,4.00e-02,
-2.350000e+01,3.20e-02,
-2.349000e+01,0.00e+00,
-2.348000e+01,3.20e-02,
-2.347000e+01,0.00e+00,
-2.346000e+01,0.00e+00,
-2.345000e+01,4.00e-02,
-2.344000e+01,4.00e-02,
-2.343000e+01,0.00e+00,
-2.342000e+01,3.20e-02,
-2.341000e+01,0.00e+00,
-2.340000e+01,4.00e-02,
-2.339000e+01,0.00e+00,
-2.338000e+01,4.80e-02,
-2.337000e+01,0.00e+00,
-2.336000e+01,4.80e-02,
-2.335000e+01,-8.00e-03,
-2.334000e+01,0.00e+00,
-2.333000e+01,4.00e-02,
-2.332000e+01,4.00e-02,
-2.331000e+01,0.00e+00,
-2.330000e+01,4.80e-02,
-2.329000e+01,0.00e+00,
-2.328000e+01,4.00e-02,
-2.327000e+01,0.00e+00,
-2.326000e+01,3.20e-02,
-2.325000e+01,0.00e+00,
-2.324000e+01,3.20e-02,
-2.323000e+01,0.00e+00,
-2.322000e+01,3.20e-02,
-2.321000e+01,0.00e+00,
-2.320000e+01,4.00e-02,
-2.319000e+01,0.00e+00,
-2.318000e+01,3.20e-02,
-2.317000e+01,0.00e+00,
-2.316000e+01,4.00e-02,
-2.315000e+01,3.20e-02,
-2.314000e+01,0.00e+00,
-2.313000e+01,3.20e-02,
-2.312000e+01,0.00e+00,
-2.311000e+01,4.00e-02,
-2.310000e+01,0.00e+00,
-2.309000e+01,4.00e-02,
-2.308000e+01,0.00e+00,
-2.307000e+01,4.00e-02,
-2.306000e+01,0.00e+00,
-2.305000e+01,0.00e+00,
-2.304000e+01,4.00e-02,
-2.303000e+01,4.00e-02,
-2.302000e+01,0.00e+00,
-2.301000e+01,4.00e-02,
-2.300000e+01,0.00e+00,
-2.299000e+01,4.00e-02,
-2.298000e+01,8.00e-03,
-2.297000e+01,5.60e-02,
-2.296000e+01,0.00e+00,
-2.295000e+01,-8.00e-03,
-2.294000e+01,4.80e-02,
-2.293000e+01,3.20e-02,
-2.292000e+01,3.20e-02,
-2.291000e+01,0.00e+00,
-2.290000e+01,4.00e-02,
-2.289000e+01,0.00e+00,
-2.288000e+01,4.00e-02,
-2.287000e+01,0.00e+00,
-2.286000e+01,4.80e-02,
-2.285000e+01,8.00e-03,
-2.284000e+01,0.00e+00,
-2.283000e+01,4.00e-02,
-2.282000e+01,3.20e-02,
-2.281000e+01,8.00e-03,
-2.280000e+01,0.00e+00,
-2.279000e+01,4.00e-02,
-2.278000e+01,4.00e-02,
-2.277000e+01,0.00e+00,
-2.276000e+01,0.00e+00,
-2.275000e+01,4.00e-02,
-2.274000e+01,4.00e-02,
-2.273000e+01,0.00e+00,
-2.272000e+01,4.00e-02,
-2.271000e+01,8.00e-03,
-2.270000e+01,0.00e+00,
-2.269000e+01,4.80e-02,
-2.268000e+01,4.00e-02,
-2.267000e+01,0.00e+00,
-2.266000e+01,4.00e-02,
-2.265000e+01,8.00e-03,
-2.264000e+01,4.00e-02,
-2.263000e+01,0.00e+00,
-2.262000e+01,3.20e-02,
-2.261000e+01,0.00e+00,
-2.260000e+01,0.00e+00,
-2.259000e+01,4.00e-02,
-2.258000e+01,4.00e-02,
-2.257000e+01,0.00e+00,
-2.256000e+01,0.00e+00,
-2.255000e+01,4.00e-02,
-2.254000e+01,4.00e-02,
-2.253000e+01,0.00e+00,
-2.252000e+01,4.00e-02,
-2.251000e+01,0.00e+00,
-2.250000e+01,0.00e+00,
-2.249000e+01,4.00e-02,
-2.248000e+01,4.00e-02,
-2.247000e+01,0.00e+00,
-2.246000e+01,4.00e-02,
-2.245000e+01,0.00e+00,
-2.244000e+01,0.00e+00,
-2.243000e+01,4.80e-02,
-2.242000e+01,4.00e-02,
-2.241000e+01,0.00e+00,
-2.240000e+01,4.00e-02,
-2.239000e+01,4.00e-02,
-2.238000e+01,0.00e+00,
-2.237000e+01,0.00e+00,
-2.236000e+01,4.00e-02,
-2.235000e+01,4.00e-02,
-2.234000e+01,0.00e+00,
-2.233000e+01,4.00e-02,
-2.232000e+01,0.00e+00,
-2.231000e+01,4.00e-02,
-2.230000e+01,0.00e+00,
-2.229000e+01,4.00e-02,
-2.228000e+01,0.00e+00,
-2.227000e+01,4.80e-02,
-2.226000e+01,0.00e+00,
-2.225000e+01,4.00e-02,
-2.224000e+01,0.00e+00,
-2.223000e+01,4.00e-02,
-2.222000e+01,0.00e+00,
-2.221000e+01,5.60e-02,
-2.220000e+01,8.00e-03,
-2.219000e+01,4.00e-02,
-2.218000e+01,8.00e-03,
-2.217000e+01,4.80e-02,
-2.216000e+01,8.00e-03,
-2.215000e+01,4.80e-02,
-2.214000e+01,0.00e+00,
-2.213000e+01,0.00e+00,
-2.212000e+01,4.00e-02,
-2.211000e+01,4.80e-02,
-2.210000e+01,8.00e-03,
-2.209000e+01,4.00e-02,
-2.208000e+01,0.00e+00,
-2.207000e+01,3.20e-02,
-2.206000e+01,8.00e-03,
-2.205000e+01,4.00e-02,
-2.204000e+01,8.00e-03,
-2.203000e+01,4.00e-02,
-2.202000e+01,8.00e-03,
-2.201000e+01,4.00e-02,
-2.200000e+01,8.00e-03,
-2.199000e+01,4.00e-02,
-2.198000e+01,8.00e-03,
-2.197000e+01,-8.00e-03,
-2.196000e+01,4.80e-02,
-2.195000e+01,4.80e-02,
-2.194000e+01,8.00e-03,
-2.193000e+01,4.80e-02,
-2.192000e+01,8.00e-03,
-2.191000e+01,4.00e-02,
-2.190000e+01,8.00e-03,
-2.189000e+01,4.00e-02,
-2.188000e+01,0.00e+00,
-2.187000e+01,4.00e-02,
-2.186000e+01,0.00e+00,
-2.185000e+01,4.80e-02,
-2.184000e+01,0.00e+00,
-2.183000e+01,4.00e-02,
-2.182000e+01,0.00e+00,
-2.181000e+01,0.00e+00,
-2.180000e+01,4.80e-02,
-2.179000e+01,4.00e-02,
-2.178000e+01,0.00e+00,
-2.177000e+01,4.00e-02,
-2.176000e+01,0.00e+00,
-2.175000e+01,4.00e-02,
-2.174000e+01,8.00e-03,
-2.173000e+01,4.80e-02,
-2.172000e+01,8.00e-03,
-2.171000e+01,4.00e-02,
-2.170000e+01,0.00e+00,
-2.169000e+01,4.00e-02,
-2.168000e+01,0.00e+00,
-2.167000e+01,4.80e-02,
-2.166000e+01,8.00e-03,
-2.165000e+01,4.80e-02,
-2.164000e+01,0.00e+00,
-2.163000e+01,4.80e-02,
-2.162000e+01,8.00e-03,
-2.161000e+01,4.00e-02,
-2.160000e+01,0.00e+00,
-2.159000e+01,4.80e-02,
-2.158000e+01,0.00e+00,
-2.157000e+01,4.80e-02,
-2.156000e+01,0.00e+00,
-2.155000e+01,5.60e-02,
-2.154000e+01,8.00e-03,
-2.153000e+01,4.00e-02,
-2.152000e+01,8.00e-03,
-2.151000e+01,4.80e-02,
-2.150000e+01,8.00e-03,
-2.149000e+01,4.00e-02,
-2.148000e+01,0.00e+00,
-2.147000e+01,8.00e-03,
-2.146000e+01,4.80e-02,
-2.145000e+01,4.00e-02,
-2.144000e+01,-8.00e-03,
-2.143000e+01,4.00e-02,
-2.142000e+01,8.00e-03,
-2.141000e+01,4.00e-02,
-2.140000e+01,0.00e+00,
-2.139000e+01,4.00e-02,
-2.138000e+01,8.00e-03,
-2.137000e+01,4.00e-02,
-2.136000e+01,8.00e-03,
-2.135000e+01,4.00e-02,
-2.134000e+01,8.00e-03,
-2.133000e+01,0.00e+00,
-2.132000e+01,4.80e-02,
-2.131000e+01,4.80e-02,
-2.130000e+01,8.00e-03,
-2.129000e+01,4.80e-02,
-2.128000e+01,0.00e+00,
-2.127000e+01,4.80e-02,
-2.126000e+01,8.00e-03,
-2.125000e+01,8.00e-03,
-2.124000e+01,5.60e-02,
-2.123000e+01,4.00e-02,
-2.122000e+01,0.00e+00,
-2.121000e+01,4.80e-02,
-2.120000e+01,8.00e-03,
-2.119000e+01,4.80e-02,
-2.118000e+01,8.00e-03,
-2.117000e+01,4.00e-02,
-2.116000e+01,8.00e-03,
-2.115000e+01,4.00e-02,
-2.114000e+01,8.00e-03,
-2.113000e+01,4.80e-02,
-2.112000e+01,8.00e-03,
-2.111000e+01,8.00e-03,
-2.110000e+01,4.80e-02,
-2.109000e+01,4.80e-02,
-2.108000e+01,8.00e-03,
-2.107000e+01,4.80e-02,
-2.106000e+01,8.00e-03,
-2.105000e+01,0.00e+00,
-2.104000e+01,4.80e-02,
-2.103000e+01,4.00e-02,
-2.102000e+01,8.00e-03,
-2.101000e+01,4.80e-02,
-2.100000e+01,8.00e-03,
-2.099000e+01,4.80e-02,
-2.098000e+01,0.00e+00,
-2.097000e+01,4.00e-02,
-2.096000e+01,8.00e-03,
-2.095000e+01,8.00e-03,
-2.094000e+01,5.60e-02,
-2.093000e+01,4.80e-02,
-2.092000e+01,8.00e-03,
-2.091000e+01,4.80e-02,
-2.090000e+01,8.00e-03,
-2.089000e+01,4.80e-02,
-2.088000e+01,8.00e-03,
-2.087000e+01,8.00e-03,
-2.086000e+01,4.80e-02,
-2.085000e+01,4.80e-02,
-2.084000e+01,8.00e-03,
-2.083000e+01,4.80e-02,
-2.082000e+01,8.00e-03,
-2.081000e+01,4.00e-02,
-2.080000e+01,8.00e-03,
-2.079000e+01,5.60e-02,
-2.078000e+01,8.00e-03,
-2.077000e+01,4.80e-02,
-2.076000e+01,8.00e-03,
-2.075000e+01,4.80e-02,
-2.074000e+01,0.00e+00,
-2.073000e+01,4.00e-02,
-2.072000e+01,1.60e-02,
-2.071000e+01,4.80e-02,
-2.070000e+01,8.00e-03,
-2.069000e+01,8.00e-03,
-2.068000e+01,4.80e-02,
-2.067000e+01,4.00e-02,
-2.066000e+01,8.00e-03,
-2.065000e+01,5.60e-02,
-2.064000e+01,8.00e-03,
-2.063000e+01,4.80e-02,
-2.062000e+01,8.00e-03,
-2.061000e+01,4.80e-02,
-2.060000e+01,0.00e+00,
-2.059000e+01,8.00e-03,
-2.058000e+01,4.80e-02,
-2.057000e+01,4.80e-02,
-2.056000e+01,0.00e+00,
-2.055000e+01,4.80e-02,
-2.054000e+01,8.00e-03,
-2.053000e+01,4.00e-02,
-2.052000e+01,8.00e-03,
-2.051000e+01,8.00e-03,
-2.050000e+01,4.80e-02,
-2.049000e+01,0.00e+00,
-2.048000e+01,4.80e-02,
-2.047000e+01,0.00e+00,
-2.046000e+01,5.60e-02,
-2.045000e+01,4.80e-02,
-2.044000e+01,8.00e-03,
-2.043000e+01,4.80e-02,
-2.042000e+01,1.60e-02,
-2.041000e+01,4.80e-02,
-2.040000e+01,8.00e-03,
-2.039000e+01,8.00e-03,
-2.038000e+01,5.60e-02,
-2.037000e+01,8.00e-03,
-2.036000e+01,5.60e-02,
-2.035000e+01,0.00e+00,
-2.034000e+01,5.60e-02,
-2.033000e+01,4.80e-02,
-2.032000e+01,8.00e-03,
-2.031000e+01,4.80e-02,
-2.030000e+01,8.00e-03,
-2.029000e+01,4.80e-02,
-2.028000e+01,0.00e+00,
-2.027000e+01,4.80e-02,
-2.026000e+01,1.60e-02,
-2.025000e+01,4.80e-02,
-2.024000e+01,1.60e-02,
-2.023000e+01,4.80e-02,
-2.022000e+01,8.00e-03,
-2.021000e+01,5.60e-02,
-2.020000e+01,1.60e-02,
-2.019000e+01,4.00e-02,
-2.018000e+01,1.60e-02,
-2.017000e+01,4.80e-02,
-2.016000e+01,1.60e-02,
-2.015000e+01,5.60e-02,
-2.014000e+01,8.00e-03,
-2.013000e+01,4.00e-02,
-2.012000e+01,8.00e-03,
-2.011000e+01,4.80e-02,
-2.010000e+01,8.00e-03,
-2.009000e+01,4.80e-02,
-2.008000e+01,8.00e-03,
-2.007000e+01,5.60e-02,
-2.006000e+01,8.00e-03,
-2.005000e+01,4.80e-02,
-2.004000e+01,1.60e-02,
-2.003000e+01,8.00e-03,
-2.002000e+01,5.60e-02,
-2.001000e+01,5.60e-02,
-2.000000e+01,8.00e-03,
-1.999000e+01,4.80e-02,
-1.998000e+01,8.00e-03,
-1.997000e+01,5.60e-02,
-1.996000e+01,1.60e-02,
-1.995000e+01,8.00e-03,
-1.994000e+01,5.60e-02,
-1.993000e+01,5.60e-02,
-1.992000e+01,1.60e-02,
-1.991000e+01,4.80e-02,
-1.990000e+01,8.00e-03,
-1.989000e+01,4.80e-02,
-1.988000e+01,1.60e-02,
-1.987000e+01,4.80e-02,
-1.986000e+01,8.00e-03,
-1.985000e+01,4.80e-02,
-1.984000e+01,1.60e-02,
-1.983000e+01,5.60e-02,
-1.982000e+01,8.00e-03,
-1.981000e+01,4.80e-02,
-1.980000e+01,1.60e-02,
-1.979000e+01,5.60e-02,
-1.978000e+01,8.00e-03,
-1.977000e+01,5.60e-02,
-1.976000e+01,8.00e-03,
-1.975000e+01,5.60e-02,
-1.974000e+01,0.00e+00,
-1.973000e+01,4.80e-02,
-1.972000e+01,8.00e-03,
-1.971000e+01,5.60e-02,
-1.970000e+01,1.60e-02,
-1.969000e+01,4.80e-02,
-1.968000e+01,8.00e-03,
-1.967000e+01,4.80e-02,
-1.966000e+01,8.00e-03,
-1.965000e+01,5.60e-02,
-1.964000e+01,1.60e-02,
-1.963000e+01,4.80e-02,
-1.962000e+01,8.00e-03,
-1.961000e+01,4.80e-02,
-1.960000e+01,1.60e-02,
-1.959000e+01,4.80e-02,
-1.958000e+01,1.60e-02,
-1.957000e+01,4.80e-02,
-1.956000e+01,1.60e-02,
-1.955000e+01,4.80e-02,
-1.954000e+01,1.60e-02,
-1.953000e+01,4.80e-02,
-1.952000e+01,1.60e-02,
-1.951000e+01,4.80e-02,
-1.950000e+01,1.60e-02,
-1.949000e+01,4.80e-02,
-1.948000e+01,1.60e-02,
-1.947000e+01,4.80e-02,
-1.946000e+01,1.60e-02,
-1.945000e+01,4.80e-02,
-1.944000e+01,8.00e-03,
-1.943000e+01,4.80e-02,
-1.942000e+01,8.00e-03,
-1.941000e+01,5.60e-02,
-1.940000e+01,1.60e-02,
-1.939000e+01,5.60e-02,
-1.938000e+01,1.60e-02,
-1.937000e+01,4.80e-02,
-1.936000e+01,1.60e-02,
-1.935000e+01,4.80e-02,
-1.934000e+01,1.60e-02,
-1.933000e+01,4.80e-02,
-1.932000e+01,1.60e-02,
-1.931000e+01,4.80e-02,
-1.930000e+01,1.60e-02,
-1.929000e+01,4.80e-02,
-1.928000e+01,1.60e-02,
-1.927000e+01,4.80e-02,
-1.926000e+01,1.60e-02,
-1.925000e+01,5.60e-02,
-1.924000e+01,1.60e-02,
-1.923000e+01,4.80e-02,
-1.922000e+01,1.60e-02,
-1.921000e+01,5.60e-02,
-1.920000e+01,0.00e+00,
-1.919000e+01,5.60e-02,
-1.918000e+01,1.60e-02,
-1.917000e+01,4.80e-02,
-1.916000e+01,1.60e-02,
-1.915000e+01,5.60e-02,
-1.914000e+01,1.60e-02,
-1.913000e+01,4.80e-02,
-1.912000e+01,8.00e-03,
-1.911000e+01,5.60e-02,
-1.910000e+01,1.60e-02,
-1.909000e+01,5.60e-02,
-1.908000e+01,8.00e-03,
-1.907000e+01,5.60e-02,
-1.906000e+01,1.60e-02,
-1.905000e+01,1.60e-02,
-1.904000e+01,6.40e-02,
-1.903000e+01,4.80e-02,
-1.902000e+01,8.00e-03,
-1.901000e+01,4.80e-02,
-1.900000e+01,1.60e-02,
-1.899000e+01,5.60e-02,
-1.898000e+01,8.00e-03,
-1.897000e+01,4.80e-02,
-1.896000e+01,1.60e-02,
-1.895000e+01,4.80e-02,
-1.894000e+01,1.60e-02,
-1.893000e+01,0.00e+00,
-1.892000e+01,6.40e-02,
-1.891000e+01,4.80e-02,
-1.890000e+01,1.60e-02,
-1.889000e+01,4.80e-02,
-1.888000e+01,1.60e-02,
-1.887000e+01,4.80e-02,
-1.886000e+01,1.60e-02,
-1.885000e+01,4.80e-02,
-1.884000e+01,1.60e-02,
-1.883000e+01,5.60e-02,
-1.882000e+01,1.60e-02,
-1.881000e+01,1.60e-02,
-1.880000e+01,5.60e-02,
-1.879000e+01,4.80e-02,
-1.878000e+01,8.00e-03,
-1.877000e+01,5.60e-02,
-1.876000e+01,1.60e-02,
-1.875000e+01,8.00e-03,
-1.874000e+01,5.60e-02,
-1.873000e+01,4.80e-02,
-1.872000e+01,1.60e-02,
-1.871000e+01,5.60e-02,
-1.870000e+01,1.60e-02,
-1.869000e+01,4.80e-02,
-1.868000e+01,1.60e-02,
-1.867000e+01,5.60e-02,
-1.866000e+01,5.60e-02,
-1.865000e+01,1.60e-02,
-1.864000e+01,8.00e-03,
-1.863000e+01,5.60e-02,
-1.862000e+01,4.80e-02,
-1.861000e+01,1.60e-02,
-1.860000e+01,4.80e-02,
-1.859000e+01,1.60e-02,
-1.858000e+01,6.40e-02,
-1.857000e+01,1.60e-02,
-1.856000e+01,5.60e-02,
-1.855000e+01,1.60e-02,
-1.854000e+01,1.60e-02,
-1.853000e+01,5.60e-02,
-1.852000e+01,1.60e-02,
-1.851000e+01,7.20e-02,
-1.850000e+01,5.60e-02,
-1.849000e+01,2.40e-02,
-1.848000e+01,5.60e-02,
-1.847000e+01,1.60e-02,
-1.846000e+01,1.60e-02,
-1.845000e+01,5.60e-02,
-1.844000e+01,4.80e-02,
-1.843000e+01,1.60e-02,
-1.842000e+01,4.80e-02,
-1.841000e+01,1.60e-02,
-1.840000e+01,5.60e-02,
-1.839000e+01,1.60e-02,
-1.838000e+01,4.80e-02,
-1.837000e+01,1.60e-02,
-1.836000e+01,5.60e-02,
-1.835000e+01,1.60e-02,
-1.834000e+01,5.60e-02,
-1.833000e+01,1.60e-02,
-1.832000e+01,4.80e-02,
-1.831000e+01,1.60e-02,
-1.830000e+01,5.60e-02,
-1.829000e+01,2.40e-02,
-1.828000e+01,4.80e-02,
-1.827000e+01,1.60e-02,
-1.826000e+01,6.40e-02,
-1.825000e+01,2.40e-02,
-1.824000e+01,5.60e-02,
-1.823000e+01,8.00e-03,
-1.822000e+01,1.60e-02,
-1.821000e+01,5.60e-02,
-1.820000e+01,5.60e-02,
-1.819000e+01,1.60e-02,
-1.818000e+01,7.20e-02,
-1.817000e+01,2.40e-02,
-1.816000e+01,5.60e-02,
-1.815000e+01,2.40e-02,
-1.814000e+01,1.60e-02,
-1.813000e+01,5.60e-02,
-1.812000e+01,1.60e-02,
-1.811000e+01,5.60e-02,
-1.810000e+01,5.60e-02,
-1.809000e+01,1.60e-02,
-1.808000e+01,5.60e-02,
-1.807000e+01,1.60e-02,
-1.806000e+01,6.40e-02,
-1.805000e+01,2.40e-02,
-1.804000e+01,5.60e-02,
-1.803000e+01,1.60e-02,
-1.802000e+01,5.60e-02,
-1.801000e+01,1.60e-02,
-1.800000e+01,5.60e-02,
-1.799000e+01,6.40e-02,
-1.798000e+01,1.60e-02,
-1.797000e+01,5.60e-02,
-1.796000e+01,1.60e-02,
-1.795000e+01,5.60e-02,
-1.794000e+01,1.60e-02,
-1.793000e+01,5.60e-02,
-1.792000e+01,1.60e-02,
-1.791000e+01,5.60e-02,
-1.790000e+01,1.60e-02,
-1.789000e+01,6.40e-02,
-1.788000e+01,1.60e-02,
-1.787000e+01,7.20e-02,
-1.786000e+01,1.60e-02,
-1.785000e+01,6.40e-02,
-1.784000e+01,1.60e-02,
-1.783000e+01,5.60e-02,
-1.782000e+01,1.60e-02,
-1.781000e+01,1.60e-02,
-1.780000e+01,6.40e-02,
-1.779000e+01,5.60e-02,
-1.778000e+01,5.60e-02,
-1.777000e+01,1.60e-02,
-1.776000e+01,1.60e-02,
-1.775000e+01,5.60e-02,
-1.774000e+01,5.60e-02,
-1.773000e+01,8.00e-03,
-1.772000e+01,5.60e-02,
-1.771000e+01,1.60e-02,
-1.770000e+01,5.60e-02,
-1.769000e+01,1.60e-02,
-1.768000e+01,5.60e-02,
-1.767000e+01,1.60e-02,
-1.766000e+01,5.60e-02,
-1.765000e+01,1.60e-02,
-1.764000e+01,5.60e-02,
-1.763000e+01,1.60e-02,
-1.762000e+01,5.60e-02,
-1.761000e+01,2.40e-02,
-1.760000e+01,7.20e-02,
-1.759000e+01,2.40e-02,
-1.758000e+01,5.60e-02,
-1.757000e+01,2.40e-02,
-1.756000e+01,5.60e-02,
-1.755000e+01,2.40e-02,
-1.754000e+01,5.60e-02,
-1.753000e+01,1.60e-02,
-1.752000e+01,5.60e-02,
-1.751000e+01,1.60e-02,
-1.750000e+01,6.40e-02,
-1.749000e+01,1.60e-02,
-1.748000e+01,5.60e-02,
-1.747000e+01,2.40e-02,
-1.746000e+01,5.60e-02,
-1.745000e+01,1.60e-02,
-1.744000e+01,5.60e-02,
-1.743000e+01,2.40e-02,
-1.742000e+01,6.40e-02,
-1.741000e+01,2.40e-02,
-1.740000e+01,6.40e-02,
-1.739000e+01,2.40e-02,
-1.738000e+01,5.60e-02,
-1.737000e+01,1.60e-02,
-1.736000e+01,5.60e-02,
-1.735000e+01,2.40e-02,
-1.734000e+01,5.60e-02,
-1.733000e+01,2.40e-02,
-1.732000e+01,5.60e-02,
-1.731000e+01,1.60e-02,
-1.730000e+01,7.20e-02,
-1.729000e+01,2.40e-02,
-1.728000e+01,2.40e-02,
-1.727000e+01,6.40e-02,
-1.726000e+01,5.60e-02,
-1.725000e+01,2.40e-02,
-1.724000e+01,5.60e-02,
-1.723000e+01,2.40e-02,
-1.722000e+01,6.40e-02,
-1.721000e+01,1.60e-02,
-1.720000e+01,6.40e-02,
-1.719000e+01,2.40e-02,
-1.718000e+01,5.60e-02,
-1.717000e+01,1.60e-02,
-1.716000e+01,7.20e-02,
-1.715000e+01,2.40e-02,
-1.714000e+01,6.40e-02,
-1.713000e+01,2.40e-02,
-1.712000e+01,6.40e-02,
-1.711000e+01,1.60e-02,
-1.710000e+01,5.60e-02,
-1.709000e+01,1.60e-02,
-1.708000e+01,6.40e-02,
-1.707000e+01,2.40e-02,
-1.706000e+01,5.60e-02,
-1.705000e+01,2.40e-02,
-1.704000e+01,6.40e-02,
-1.703000e+01,2.40e-02,
-1.702000e+01,6.40e-02,
-1.701000e+01,2.40e-02,
-1.700000e+01,6.40e-02,
-1.699000e+01,2.40e-02,
-1.698000e+01,5.60e-02,
-1.697000e+01,2.40e-02,
-1.696000e+01,6.40e-02,
-1.695000e+01,2.40e-02,
-1.694000e+01,5.60e-02,
-1.693000e+01,2.40e-02,
-1.692000e+01,6.40e-02,
-1.691000e+01,2.40e-02,
-1.690000e+01,7.20e-02,
-1.689000e+01,2.40e-02,
-1.688000e+01,6.40e-02,
-1.687000e+01,2.40e-02,
-1.686000e+01,6.40e-02,
-1.685000e+01,2.40e-02,
-1.684000e+01,1.60e-02,
